placementId,bidId,currency,updatedAt,creativeId,id,createdAt,auctionId,netRevenue,renderStatus,pubId,mediaType,deviceType,requestId,adUnitCode,bidderCode,statusMessage,status,hash,requestTimestamp,host,path,responseTimestamp,search,cpm,sizes,timeToRespond,transactionId,renderedSize,Impression,Request,time_key
,2b30a1572768fb,EUR,,2249:155246156,,2019-01-03 08.46.35,15faebfb-de4a-4a8e-a589-1d4a7ea7c73a,False,4,5,banner,"Mozilla/5.0 (Linux; Android 6.0; XT1706) AppleWebKit/537.36 (KHTML, like Gecko) Chrome/70.0.3538.110 Mobile Safari/537.36",,Mrec,rubicon,Bid available,rendered,,1546523186058,dc.sapo.pt,/teste/js/hb/rubicon/,1546523186396.0,,1.0335,,338.0,,300x250,1,0,20190103
,39be4aef91146b,EUR,,2249:155246156,,2019-01-03 08.46.35,15faebfb-de4a-4a8e-a589-1d4a7ea7c73a,False,4,5,banner,"Mozilla/5.0 (Linux; Android 6.0; XT1706) AppleWebKit/537.36 (KHTML, like Gecko) Chrome/70.0.3538.110 Mobile Safari/537.36",,Halfpage,rubicon,Bid available,rendered,,1546523186058,dc.sapo.pt,/teste/js/hb/rubicon/,1546523186416.0,,1.0335,,358.0,,300x250,1,0,20190103
,251ca9572d51a4,EUR,,2249:155246156,,2019-01-03 08.47.50,f3e57f0b-ca6a-4d76-a336-246ba05acd18,False,4,5,banner,"Mozilla/5.0 (Linux; Android 6.0; XT1706) AppleWebKit/537.36 (KHTML, like Gecko) Chrome/70.0.3538.110 Mobile Safari/537.36",,Mrec,rubicon,Bid available,rendered,,1546523264445,dc.sapo.pt,/teste/js/hb/rubicon/,1546523264762.0,,0.7169,,317.0,,300x250,1,0,20190103
,3c413aa296478e,EUR,,2249:155246156,,2019-01-03 08.47.51,f3e57f0b-ca6a-4d76-a336-246ba05acd18,False,4,5,banner,"Mozilla/5.0 (Linux; Android 6.0; XT1706) AppleWebKit/537.36 (KHTML, like Gecko) Chrome/70.0.3538.110 Mobile Safari/537.36",,Halfpage,rubicon,Bid available,rendered,,1546523264445,dc.sapo.pt,/teste/js/hb/rubicon/,1546523264787.0,,0.7170000000000001,,342.0,,300x250,1,0,20190103
,42341496bb6c27,EUR,,2249:147849598,,2019-01-03 08.48.11,9750d51f-487e-4db1-9c93-12161489baff,False,4,5,banner,"Mozilla/5.0 (X11; Linux x86_64) AppleWebKit/537.36 (KHTML, like Gecko) Chrome/70.0.3538.102 Safari/537.36",,Lb,rubicon,Bid available,rendered,,1546523288342,dc.sapo.pt,/teste/js/hb/rubicon/,1546523288749.0,,0.3106,,407.0,,728x90,1,0,20190103
,36e1d999991ec2,EUR,,2249:155246156,,2019-01-03 09.09.17,a79f9a33-7126-40d8-bf00-a740dfaf97d6,False,4,5,banner,"Mozilla/5.0 (Linux; Android 6.0; XT1706) AppleWebKit/537.36 (KHTML, like Gecko) Chrome/70.0.3538.110 Mobile Safari/537.36",,Halfpage,rubicon,Bid available,rendered,,1546524547706,dc.sapo.pt,/teste/js/hb/rubicon/,1546524548180.0,,0.7170000000000001,,474.0,,300x250,1,0,20190103
,2986cf4a07939f,EUR,,2249:155246156,,2019-01-03 09.09.17,a79f9a33-7126-40d8-bf00-a740dfaf97d6,False,4,5,banner,"Mozilla/5.0 (Linux; Android 6.0; XT1706) AppleWebKit/537.36 (KHTML, like Gecko) Chrome/70.0.3538.110 Mobile Safari/537.36",,Mrec,rubicon,Bid available,rendered,,1546524547706,dc.sapo.pt,/teste/js/hb/rubicon/,1546524548199.0,,0.7169,,493.0,,300x250,1,0,20190103
