"Time Spent","vCPM($)","Fill Rate(%)","Viewable Impressions","Sites","Devices","Revenue($)","Date","Impressions","Clicks","Placements","CTR(%)","source"
"00:00","29.61","100","668","titantv.com","Android","19.78","20181121","3759","6","Titantv - Article Page","0.90","Connatix"
"00:00","77.95","100","239","titantv.com","Android Tablet","18.63","20181121","2625","8","Titantv - Article Page","3.35","Connatix"
"00:03","153.97","99.96","3268","titantv.com","Desktop","503.18","20181121","33350","147","Titantv - Article Page","4.50","Connatix"
"00:00","0","0","0","titantv.com","iPad iOS < 10","0","20181121","0","0","Titantv - Article Page","0","Connatix"
"00:17","26.89","95.91","286","titantv.com","Ipad iOS 10+","7.69","20181121","3285","3","Titantv - Article Page","1.05","Connatix"
"00:00","0","0","0","titantv.com","iPhone iOS < 10","0","20181121","0","0","Titantv - Article Page","0","Connatix"
"00:00","12.91","96.25","169","titantv.com","Iphone iOS 10+","2.18","20181121","1567","0","Titantv - Article Page","0","Connatix"
"00:01","43.26","100","1008","titantv.com","Android","43.60","20181122","5877","9","Titantv - Article Page","0.89","Connatix"
"00:00","96.77","100","371","titantv.com","Android Tablet","35.90","20181122","3953","9","Titantv - Article Page","2.43","Connatix"
"00:03","229.42","99.96","3950","titantv.com","Desktop","906.19","20181122","41941","148","Titantv - Article Page","3.75","Connatix"
"00:00","0","0","0","titantv.com","iPad iOS < 10","0","20181122","0","0","Titantv - Article Page","0","Connatix"
"00:05","39.87","95.70","418","titantv.com","Ipad iOS 10+","16.66","20181122","4671","3","Titantv - Article Page","0.72","Connatix"
"00:00","0","0","0","titantv.com","iPhone iOS < 10","0","20181122","0","0","Titantv - Article Page","0","Connatix"
"00:00","41.74","96.13","236","titantv.com","Iphone iOS 10+","9.85","20181122","2485","1","Titantv - Article Page","0.42","Connatix"
"00:01","47.99","100","874","titantv.com","Android","41.94","20181123","5273","18","Titantv - Article Page","2.06","Connatix"
"00:05","80.23","100","385","titantv.com","Android Tablet","30.89","20181123","3740","10","Titantv - Article Page","2.60","Connatix"
"00:06","201.35","99.97","3971","titantv.com","Desktop","799.55","20181123","39445","138","Titantv - Article Page","3.48","Connatix"
"00:00","0","0","0","titantv.com","iPad iOS < 10","0","20181123","0","0","Titantv - Article Page","0","Connatix"
"00:03","30.21","96.79","414","titantv.com","Ipad iOS 10+","12.51","20181123","4245","4","Titantv - Article Page","0.97","Connatix"
"00:00","0","0","0","titantv.com","iPhone iOS < 10","0","20181123","0","0","Titantv - Article Page","0","Connatix"
"00:20","37.62","96.01","221","titantv.com","Iphone iOS 10+","8.31","20181123","2189","3","Titantv - Article Page","1.36","Connatix"
"00:00","44.25","99.94","1168","titantv.com","Android","51.69","20181124","6294","20","Titantv - Article Page","1.71","Connatix"
"00:00","103.79","100","504","titantv.com","Android Tablet","52.31","20181124","4607","7","Titantv - Article Page","1.39","Connatix"
"00:05","196.29","99.95","4837","titantv.com","Desktop","949.46","20181124","46244","171","Titantv - Article Page","3.54","Connatix"
"00:00","0","0","0","titantv.com","iPad iOS < 10","0","20181124","0","0","Titantv - Article Page","0","Connatix"
"00:00","77.44","95.71","519","titantv.com","Ipad iOS 10+","40.19","20181124","5271","3","Titantv - Article Page","0.58","Connatix"
"00:00","0","0","0","titantv.com","iPhone iOS < 10","0","20181124","0","0","Titantv - Article Page","0","Connatix"
"00:00","46.96","97.71","257","titantv.com","Iphone iOS 10+","12.07","20181124","2603","2","Titantv - Article Page","0.78","Connatix"
"00:00","41.48","100","1273","titantv.com","Android","52.80","20181125","7057","15","Titantv - Article Page","1.18","Connatix"
"00:04","93.04","100","474","titantv.com","Android Tablet","44.10","20181125","4736","8","Titantv - Article Page","1.69","Connatix"
"00:03","173.67","99.94","4798","titantv.com","Desktop","833.27","20181125","49377","172","Titantv - Article Page","3.58","Connatix"
"00:00","0","0","0","titantv.com","iPad iOS < 10","0","20181125","0","0","Titantv - Article Page","0","Connatix"
"00:00","71.58","97.18","541","titantv.com","Ipad iOS 10+","38.72","20181125","5755","2","Titantv - Article Page","0.37","Connatix"
"00:00","0","0","0","titantv.com","iPhone iOS < 10","0","20181125","0","0","Titantv - Article Page","0","Connatix"
"00:01","44.39","98.05","302","titantv.com","Iphone iOS 10+","13.41","20181125","3117","6","Titantv - Article Page","1.99","Connatix"
"00:02","34.56","100","804","titantv.com","Android","27.79","20181126","4489","12","Titantv - Article Page","1.49","Connatix"
"00:00","89.68","100","285","titantv.com","Android Tablet","25.56","20181126","3154","1","Titantv - Article Page","0.35","Connatix"
"00:02","150.97","99.91","3377","titantv.com","Desktop","509.83","20181126","35281","116","Titantv - Article Page","3.44","Connatix"
"00:00","0","0","0","titantv.com","iPad iOS < 10","0","20181126","0","0","Titantv - Article Page","0","Connatix"
"00:00","56.98","95.45","323","titantv.com","Ipad iOS 10+","18.40","20181126","3984","2","Titantv - Article Page","0.62","Connatix"
"00:00","0","0","0","titantv.com","iPhone iOS < 10","0","20181126","0","0","Titantv - Article Page","0","Connatix"
"00:01","39.92","96.55","174","titantv.com","Iphone iOS 10+","6.95","20181126","1876","4","Titantv - Article Page","2.30","Connatix"
"00:00","50.73","100","672","titantv.com","Android","34.09","20181127","4005","6","Titantv - Article Page","0.89","Connatix"
"00:00","121.40","100","287","titantv.com","Android Tablet","34.84","20181127","2963","1","Titantv - Article Page","0.35","Connatix"
"00:03","174.07","99.94","3330","titantv.com","Desktop","579.66","20181127","35104","135","Titantv - Article Page","4.05","Connatix"
"00:00","0","0","0","titantv.com","iPad iOS < 10","0","20181127","0","0","Titantv - Article Page","0","Connatix"
"00:16","96.35","95.76","259","titantv.com","Ipad iOS 10+","24.96","20181127","3521","6","Titantv - Article Page","2.32","Connatix"
"00:00","0","0","0","titantv.com","iPhone iOS < 10","0","20181127","0","0","Titantv - Article Page","0","Connatix"
"00:00","44.09","97.82","198","titantv.com","Iphone iOS 10+","8.73","20181127","1754","1","Titantv - Article Page","0.51","Connatix"
"00:00","32.85","100","655","titantv.com","Android","21.52","20181128","4201","11","Titantv - Article Page","1.68","Connatix"
"00:00","70.28","100","273","titantv.com","Android Tablet","19.19","20181128","3161","4","Titantv - Article Page","1.47","Connatix"
"00:03","142.96","99.96","3299","titantv.com","Desktop","471.64","20181128","34042","138","Titantv - Article Page","4.18","Connatix"
"00:00","0","0","0","titantv.com","iPad iOS < 10","0","20181128","0","0","Titantv - Article Page","0","Connatix"
"00:00","48.02","96.83","320","titantv.com","Ipad iOS 10+","15.36","20181128","3420","2","Titantv - Article Page","0.62","Connatix"
"00:00","0","0","0","titantv.com","iPhone iOS < 10","0","20181128","0","0","Titantv - Article Page","0","Connatix"
"00:00","35.36","96.98","180","titantv.com","Iphone iOS 10+","6.36","20181128","1737","1","Titantv - Article Page","0.56","Connatix"
"00:00","32.32","100","655","titantv.com","Android","21.17","20181129","4009","13","Titantv - Article Page","1.98","Connatix"
"00:00","92.00","100","257","titantv.com","Android Tablet","23.64","20181129","3026","2","Titantv - Article Page","0.78","Connatix"
"00:05","163.38","99.95","3316","titantv.com","Desktop","541.78","20181129","34873","146","Titantv - Article Page","4.40","Connatix"
"00:00","0","0","0","titantv.com","iPad iOS < 10","0","20181129","0","0","Titantv - Article Page","0","Connatix"
"00:19","38.28","98.28","273","titantv.com","Ipad iOS 10+","10.45","20181129","3321","4","Titantv - Article Page","1.47","Connatix"
"00:00","0","0","0","titantv.com","iPhone iOS < 10","0","20181129","0","0","Titantv - Article Page","0","Connatix"
"00:00","30.30","95.81","158","titantv.com","Iphone iOS 10+","4.79","20181129","1579","2","Titantv - Article Page","1.27","Connatix"
"00:03","34.77","100","650","titantv.com","Android","22.60","20181130","3943","4","Titantv - Article Page","0.62","Connatix"
"00:00","79.06","100","240","titantv.com","Android Tablet","18.97","20181130","2893","2","Titantv - Article Page","0.83","Connatix"
"00:05","157.83","99.93","3175","titantv.com","Desktop","501.12","20181130","33580","120","Titantv - Article Page","3.78","Connatix"
"00:00","0","0","0","titantv.com","iPad iOS < 10","0","20181130","0","0","Titantv - Article Page","0","Connatix"
"00:18","51.14","93.20","265","titantv.com","Ipad iOS 10+","13.55","20181130","3383","2","Titantv - Article Page","0.75","Connatix"
"00:00","0","0","0","titantv.com","iPhone iOS < 10","0","20181130","0","0","Titantv - Article Page","0","Connatix"
"00:33","38.64","97.71","150","titantv.com","Iphone iOS 10+","5.80","20181130","1753","2","Titantv - Article Page","1.33","Connatix"
"00:06","21.22","100","1105","titantv.com","Android","23.45","20181201","5929","11","Titantv - Article Page","1.00","Connatix"
"00:11","51.49","100","423","titantv.com","Android Tablet","21.78","20181201","4366","4","Titantv - Article Page","0.95","Connatix"
"00:05","151.05","99.94","4474","titantv.com","Desktop","675.81","20181201","44691","169","Titantv - Article Page","3.78","Connatix"
"00:00","0","0","0","titantv.com","iPad iOS < 10","0","20181201","0","0","Titantv - Article Page","0","Connatix"
"00:08","25.75","96.77","430","titantv.com","Ipad iOS 10+","11.07","20181201","4699","3","Titantv - Article Page","0.70","Connatix"
"00:00","0","0","0","titantv.com","iPhone iOS < 10","0","20181201","0","0","Titantv - Article Page","0","Connatix"
"00:00","15.25","96.63","258","titantv.com","Iphone iOS 10+","3.94","20181201","2524","3","Titantv - Article Page","1.16","Connatix"
"00:00","24.61","100","1159","titantv.com","Android","28.52","20181202","6946","6","Titantv - Article Page","0.52","Connatix"
"00:00","61.57","100","463","titantv.com","Android Tablet","28.51","20181202","4892","7","Titantv - Article Page","1.51","Connatix"
"00:03","164.99","99.94","4734","titantv.com","Desktop","781.06","20181202","48973","179","Titantv - Article Page","3.78","Connatix"
"00:00","0","0","0","titantv.com","iPad iOS < 10","0","20181202","0","0","Titantv - Article Page","0","Connatix"
"00:02","30.63","96.29","473","titantv.com","Ipad iOS 10+","14.49","20181202","5320","4","Titantv - Article Page","0.85","Connatix"
"00:00","0","0","0","titantv.com","iPhone iOS < 10","0","20181202","0","0","Titantv - Article Page","0","Connatix"
"03:33","14.49","96.56","303","titantv.com","Iphone iOS 10+","4.39","20181202","2778","1","Titantv - Article Page","0.33","Connatix"
"00:04","22.31","100","790","titantv.com","Android","17.63","20181203","4603","11","Titantv - Article Page","1.39","Connatix"
"00:27","56.09","100","297","titantv.com","Android Tablet","16.66","20181203","3244","5","Titantv - Article Page","1.68","Connatix"
"00:04","124.46","99.90","3465","titantv.com","Desktop","431.25","20181203","35613","146","Titantv - Article Page","4.21","Connatix"
"00:00","0","0","0","titantv.com","iPad iOS < 10","0","20181203","0","0","Titantv - Article Page","0","Connatix"
"00:00","31.19","94.19","290","titantv.com","Ipad iOS 10+","9.05","20181203","3597","1","Titantv - Article Page","0.34","Connatix"
"00:00","0","0","0","titantv.com","iPhone iOS < 10","0","20181203","0","0","Titantv - Article Page","0","Connatix"
"00:00","15.92","97.10","198","titantv.com","Iphone iOS 10+","3.15","20181203","1873","3","Titantv - Article Page","1.52","Connatix"
"00:00","25.37","100","595","titantv.com","Android","15.09","20181204","3974","2","Titantv - Article Page","0.34","Connatix"
"00:00","57.88","100","243","titantv.com","Android Tablet","14.07","20181204","2957","4","Titantv - Article Page","1.65","Connatix"
"00:04","105.53","99.93","3133","titantv.com","Desktop","330.64","20181204","33901","117","Titantv - Article Page","3.73","Connatix"
"00:00","0","0","0","titantv.com","iPad iOS < 10","0","20181204","0","0","Titantv - Article Page","0","Connatix"
"00:00","38.21","96.45","293","titantv.com","Ipad iOS 10+","11.19","20181204","3482","2","Titantv - Article Page","0.68","Connatix"
"00:00","0","0","0","titantv.com","iPhone iOS < 10","0","20181204","0","0","Titantv - Article Page","0","Connatix"
"00:00","17.37","95.55","145","titantv.com","Iphone iOS 10+","2.52","20181204","1567","2","Titantv - Article Page","1.38","Connatix"
"00:00","22.84","99.95","609","titantv.com","Android","13.91","20181205","3916","8","Titantv - Article Page","1.31","Connatix"
"00:00","70.47","100","233","titantv.com","Android Tablet","16.42","20181205","2849","2","Titantv - Article Page","0.86","Connatix"
"00:05","117.49","99.94","3059","titantv.com","Desktop","359.42","20181205","33046","142","Titantv - Article Page","4.64","Connatix"
"00:00","0","0","0","titantv.com","iPad iOS < 10","0","20181205","0","0","Titantv - Article Page","0","Connatix"
"00:23","34.53","96.87","261","titantv.com","Ipad iOS 10+","9.01","20181205","3279","2","Titantv - Article Page","0.77","Connatix"
"00:00","0","0","0","titantv.com","iPhone iOS < 10","0","20181205","0","0","Titantv - Article Page","0","Connatix"
"00:00","29.02","96.46","153","titantv.com","Iphone iOS 10+","4.44","20181205","1637","1","Titantv - Article Page","0.65","Connatix"
"00:11","17.99","100","647","titantv.com","Android","11.64","20181206","3852","14","Titantv - Article Page","2.16","Connatix"
"00:00","59.65","100","225","titantv.com","Android Tablet","13.42","20181206","2804","7","Titantv - Article Page","3.11","Connatix"
"00:06","120.23","99.92","3072","titantv.com","Desktop","369.33","20181206","33266","164","Titantv - Article Page","5.34","Connatix"
"00:00","0","0","0","titantv.com","iPad iOS < 10","0","20181206","0","0","Titantv - Article Page","0","Connatix"
"00:00","18.24","97.24","283","titantv.com","Ipad iOS 10+","5.16","20181206","3306","2","Titantv - Article Page","0.71","Connatix"
"00:00","0","0","0","titantv.com","iPhone iOS < 10","0","20181206","0","0","Titantv - Article Page","0","Connatix"
"00:00","16.84","96.47","142","titantv.com","Iphone iOS 10+","2.39","20181206","1585","0","Titantv - Article Page","0","Connatix"
"00:00","0","100","0","antennaweb.org","Android","0","20181207","1","0","antennaweb - Homepage","0","Connatix"
"00:47","22.77","100","582","titantv.com","Android","13.25","20181207","3728","8","Titantv - Article Page","1.37","Connatix"
"00:05","46.53","100","267","titantv.com","Android Tablet","12.42","20181207","2963","6","Titantv - Article Page","2.25","Connatix"
"00:05","121.87","99.90","3170","titantv.com","Desktop","386.32","20181207","33511","132","Titantv - Article Page","4.16","Connatix"
"00:00","0","0","0","titantv.com","iPad iOS < 10","0","20181207","0","0","Titantv - Article Page","0","Connatix"
"00:00","20.25","93.39","279","titantv.com","Ipad iOS 10+","5.65","20181207","3237","1","Titantv - Article Page","0.36","Connatix"
"00:00","0","0","0","titantv.com","iPhone iOS < 10","0","20181207","0","0","Titantv - Article Page","0","Connatix"
"00:00","28.01","96.49","142","titantv.com","Iphone iOS 10+","3.98","20181207","1484","0","Titantv - Article Page","0","Connatix"
"00:00","22.25","100","1058","titantv.com","Android","23.54","20181208","5761","9","Titantv - Article Page","0.85","Connatix"
"00:00","49.84","100","426","titantv.com","Android Tablet","21.23","20181208","4222","2","Titantv - Article Page","0.47","Connatix"
"00:03","142.84","99.95","4491","titantv.com","Desktop","641.49","20181208","44752","156","Titantv - Article Page","3.47","Connatix"
"00:00","0","0","0","titantv.com","iPad iOS < 10","0","20181208","0","0","Titantv - Article Page","0","Connatix"
"00:00","32.45","95.82","427","titantv.com","Ipad iOS 10+","13.86","20181208","4746","0","Titantv - Article Page","0","Connatix"
"00:00","0","0","0","titantv.com","iPhone iOS < 10","0","20181208","0","0","Titantv - Article Page","0","Connatix"
"00:02","17.38","98.01","234","titantv.com","Iphone iOS 10+","4.07","20181208","2515","2","Titantv - Article Page","0.85","Connatix"
"00:03","24.66","100","1198","titantv.com","Android","29.55","20181209","6860","17","Titantv - Article Page","1.42","Connatix"
"00:00","50.31","100","503","titantv.com","Android Tablet","25.31","20181209","4837","7","Titantv - Article Page","1.39","Connatix"
"00:03","150.45","99.92","4673","titantv.com","Desktop","703.04","20181209","49295","179","Titantv - Article Page","3.83","Connatix"
"00:00","0","0","0","titantv.com","iPad iOS < 10","0","20181209","0","0","Titantv - Article Page","0","Connatix"
"00:15","33.45","97.81","507","titantv.com","Ipad iOS 10+","16.96","20181209","5458","5","Titantv - Article Page","0.99","Connatix"
"00:00","0","0","0","titantv.com","iPhone iOS < 10","0","20181209","0","0","Titantv - Article Page","0","Connatix"
"00:00","14.39","96.56","304","titantv.com","Iphone iOS 10+","4.38","20181209","2836","4","Titantv - Article Page","1.32","Connatix"
"00:00","20.75","100","711","titantv.com","Android","14.76","20181210","4305","6","Titantv - Article Page","0.84","Connatix"
"00:00","47.16","100","313","titantv.com","Android Tablet","14.76","20181210","3150","2","Titantv - Article Page","0.64","Connatix"
"00:00","0","100","0","antennaweb.org","Desktop","0","20181210","1","0","antennaweb - Homepage","0","Connatix"
"00:03","106.30","99.84","3432","titantv.com","Desktop","364.83","20181210","36115","149","Titantv - Article Page","4.34","Connatix"
"00:00","0","0","0","titantv.com","iPad iOS < 10","0","20181210","0","0","Titantv - Article Page","0","Connatix"
"00:00","37.48","96.08","307","titantv.com","Ipad iOS 10+","11.51","20181210","3581","0","Titantv - Article Page","0","Connatix"
"00:00","0","0","0","titantv.com","iPhone iOS < 10","0","20181210","0","0","Titantv - Article Page","0","Connatix"
"00:00","10.71","97.97","183","titantv.com","Iphone iOS 10+","1.96","20181210","1737","2","Titantv - Article Page","1.09","Connatix"
"00:07","21.24","100","642","titantv.com","Android","13.64","20181211","3882","12","Titantv - Article Page","1.87","Connatix"
"00:00","45.81","100","260","titantv.com","Android Tablet","11.91","20181211","2961","8","Titantv - Article Page","3.08","Connatix"
"00:04","106.71","99.94","3021","titantv.com","Desktop","322.37","20181211","32629","126","Titantv - Article Page","4.17","Connatix"
"00:00","0","0","0","titantv.com","iPad iOS < 10","0","20181211","0","0","Titantv - Article Page","0","Connatix"
"00:00","33.11","95.33","308","titantv.com","Ipad iOS 10+","10.20","20181211","3673","2","Titantv - Article Page","0.65","Connatix"
"00:00","0","0","0","titantv.com","iPhone iOS < 10","0","20181211","0","0","Titantv - Article Page","0","Connatix"
"00:00","19.85","97.06","165","titantv.com","Iphone iOS 10+","3.28","20181211","1682","1","Titantv - Article Page","0.61","Connatix"
"00:00","27.48","100","553","titantv.com","Android","15.20","20181212","3648","6","Titantv - Article Page","1.08","Connatix"
"00:02","53.54","100","255","titantv.com","Android Tablet","13.65","20181212","2966","4","Titantv - Article Page","1.57","Connatix"
"00:03","120.90","99.88","3171","titantv.com","Desktop","383.37","20181212","32221","103","Titantv - Article Page","3.25","Connatix"
"00:00","0","0","0","titantv.com","iPad iOS < 10","0","20181212","0","0","Titantv - Article Page","0","Connatix"
"00:22","34.36","97.89","326","titantv.com","Ipad iOS 10+","11.20","20181212","3520","3","Titantv - Article Page","0.92","Connatix"
"00:00","0","0","0","titantv.com","iPhone iOS < 10","0","20181212","0","0","Titantv - Article Page","0","Connatix"
"00:00","13.33","97.46","157","titantv.com","Iphone iOS 10+","2.09","20181212","1611","1","Titantv - Article Page","0.64","Connatix"
"00:00","25.79","100","597","titantv.com","Android","15.40","20181213","3798","10","Titantv - Article Page","1.68","Connatix"
"00:00","60.79","100","221","titantv.com","Android Tablet","13.43","20181213","2949","4","Titantv - Article Page","1.81","Connatix"
"00:03","115.52","99.87","3244","titantv.com","Desktop","374.73","20181213","33980","125","Titantv - Article Page","3.85","Connatix"
"00:00","0","0","0","titantv.com","iPad iOS < 10","0","20181213","0","0","Titantv - Article Page","0","Connatix"
"00:00","30.74","97.87","310","titantv.com","Ipad iOS 10+","9.53","20181213","3537","0","Titantv - Article Page","0","Connatix"
"00:00","0","0","0","titantv.com","iPhone iOS < 10","0","20181213","0","0","Titantv - Article Page","0","Connatix"
"00:00","8.58","95.60","180","titantv.com","Iphone iOS 10+","1.54","20181213","1672","4","Titantv - Article Page","2.22","Connatix"
"00:00","0","100","0","antennaweb.org","Android","0","20181214","1","0","antennaweb - Homepage","0","Connatix"
"00:02","22.23","100","595","titantv.com","Android","13.23","20181214","3768","11","Titantv - Article Page","1.85","Connatix"
"00:06","59.39","99.96","215","titantv.com","Android Tablet","12.77","20181214","2745","4","Titantv - Article Page","1.86","Connatix"
"00:04","114.82","99.98","3333","titantv.com","Desktop","382.68","20181214","34654","128","Titantv - Article Page","3.84","Connatix"
"00:00","0","0","0","titantv.com","iPad iOS < 10","0","20181214","0","0","Titantv - Article Page","0","Connatix"
"00:00","23.36","96.91","260","titantv.com","Ipad iOS 10+","6.07","20181214","3423","0","Titantv - Article Page","0","Connatix"
"00:00","0","0","0","titantv.com","iPhone iOS < 10","0","20181214","0","0","Titantv - Article Page","0","Connatix"
"00:00","16.19","97.68","136","titantv.com","Iphone iOS 10+","2.20","20181214","1641","1","Titantv - Article Page","0.74","Connatix"
"00:00","21.28","100","968","titantv.com","Android","20.60","20181215","5906","15","Titantv - Article Page","1.55","Connatix"
"00:09","51.66","100","380","titantv.com","Android Tablet","19.63","20181215","3926","7","Titantv - Article Page","1.84","Connatix"
"00:04","151.60","99.96","4528","titantv.com","Desktop","686.43","20181215","46405","130","Titantv - Article Page","2.87","Connatix"
"00:00","0","0","0","titantv.com","iPad iOS < 10","0","20181215","0","0","Titantv - Article Page","0","Connatix"
"00:08","26.58","96.73","486","titantv.com","Ipad iOS 10+","12.92","20181215","5260","3","Titantv - Article Page","0.62","Connatix"
"00:00","0","0","0","titantv.com","iPhone iOS < 10","0","20181215","0","0","Titantv - Article Page","0","Connatix"
"00:22","15.84","97.07","231","titantv.com","Iphone iOS 10+","3.66","20181215","2288","4","Titantv - Article Page","1.73","Connatix"
"00:00","21.05","100","1108","titantv.com","Android","23.32","20181216","6429","13","Titantv - Article Page","1.17","Connatix"
"00:07","46.18","100","431","titantv.com","Android Tablet","19.90","20181216","4498","3","Titantv - Article Page","0.70","Connatix"
"00:04","152.21","99.90","4609","titantv.com","Desktop","701.52","20181216","49218","167","Titantv - Article Page","3.62","Connatix"
"00:00","0","0","0","titantv.com","iPad iOS < 10","0","20181216","0","0","Titantv - Article Page","0","Connatix"
"00:00","26.94","97.13","485","titantv.com","Ipad iOS 10+","13.06","20181216","5754","4","Titantv - Article Page","0.82","Connatix"
"00:00","0","0","0","titantv.com","iPhone iOS < 10","0","20181216","0","0","Titantv - Article Page","0","Connatix"
"00:05","18.93","95.18","273","titantv.com","Iphone iOS 10+","5.17","20181216","2881","3","Titantv - Article Page","1.10","Connatix"
"00:05","19.30","99.98","702","titantv.com","Android","13.55","20181217","4430","10","Titantv - Article Page","1.42","Connatix"
"00:00","40.48","100","296","titantv.com","Android Tablet","11.98","20181217","3250","2","Titantv - Article Page","0.68","Connatix"
"00:03","108.06","99.93","3412","titantv.com","Desktop","368.69","20181217","36705","134","Titantv - Article Page","3.93","Connatix"
"00:00","0","0","0","titantv.com","iPad iOS < 10","0","20181217","0","0","Titantv - Article Page","0","Connatix"
"00:33","20.01","93.93","359","titantv.com","Ipad iOS 10+","7.18","20181217","4207","2","Titantv - Article Page","0.56","Connatix"
"00:00","0","0","0","titantv.com","iPhone iOS < 10","0","20181217","0","0","Titantv - Article Page","0","Connatix"
"00:00","12.53","95.10","188","titantv.com","Iphone iOS 10+","2.36","20181217","2018","2","Titantv - Article Page","1.06","Connatix"
"00:00","23.25","100","625","titantv.com","Android","14.53","20181218","3893","3","Titantv - Article Page","0.48","Connatix"
"00:05","54.91","100","238","titantv.com","Android Tablet","13.07","20181218","2873","3","Titantv - Article Page","1.26","Connatix"
"00:03","104.63","99.95","3309","titantv.com","Desktop","346.21","20181218","34698","121","Titantv - Article Page","3.66","Connatix"
"00:00","0","0","0","titantv.com","iPad iOS < 10","0","20181218","0","0","Titantv - Article Page","0","Connatix"
"00:00","27.40","97.09","300","titantv.com","Ipad iOS 10+","8.22","20181218","3733","1","Titantv - Article Page","0.33","Connatix"
"00:00","0","0","0","titantv.com","iPhone iOS < 10","0","20181218","0","0","Titantv - Article Page","0","Connatix"
"01:01","12.31","96.63","222","titantv.com","Iphone iOS 10+","2.73","20181218","1862","2","Titantv - Article Page","0.90","Connatix"
"00:00","24.21","100","635","titantv.com","Android","15.37","20181219","3850","7","Titantv - Article Page","1.10","Connatix"
"00:00","70.31","100","209","titantv.com","Android Tablet","14.69","20181219","2782","4","Titantv - Article Page","1.91","Connatix"
"00:03","113.35","99.97","3036","titantv.com","Desktop","344.14","20181219","32755","134","Titantv - Article Page","4.41","Connatix"
"00:00","0","0","0","titantv.com","iPad iOS < 10","0","20181219","0","0","Titantv - Article Page","0","Connatix"
"00:00","23.74","95.68","262","titantv.com","Ipad iOS 10+","6.22","20181219","3414","7","Titantv - Article Page","2.67","Connatix"
"00:00","0","0","0","titantv.com","iPhone iOS < 10","0","20181219","0","0","Titantv - Article Page","0","Connatix"
"00:00","32.82","97.35","121","titantv.com","Iphone iOS 10+","3.97","20181219","1650","5","Titantv - Article Page","4.13","Connatix"
"00:00","24.35","100","311","titantv.com","Android","7.57","20181220","1931","3","Titantv - Article Page","0.96","Connatix"
"00:32","68.49","100","89","titantv.com","Android Tablet","6.10","20181220","1310","2","Titantv - Article Page","2.25","Connatix"
"00:01","108.60","99.98","1169","titantv.com","Desktop","126.95","20181220","12606","43","Titantv - Article Page","3.68","Connatix"
"00:00","0","0","0","titantv.com","iPad iOS < 10","0","20181220","0","0","Titantv - Article Page","0","Connatix"
"00:00","35.20","95.95","133","titantv.com","Ipad iOS 10+","4.68","20181220","1826","1","Titantv - Article Page","0.75","Connatix"
"00:00","0","0","0","titantv.com","iPhone iOS < 10","0","20181220","0","0","Titantv - Article Page","0","Connatix"
"00:00","16.31","95.84","80","titantv.com","Iphone iOS 10+","1.30","20181220","875","2","Titantv - Article Page","2.50","Connatix"
